Drinking Trends around the World
…
##                beer_servings              spirit_servings 
##                           15                           23 
##                wine_servings total_litres_of_pure_alcohol 
##                           31                           13

When dealing with datasets, it is important to make sure we have a good idea of what the data looks like. As we can see above, the variable types are character for one column and numeric for the remaining four, with one column with decimal points. For what concerns missing information, you can see that for some countries such as North Korea no information was recorded regardless of the alcohol type. In other cases, such as Burundi, the information was only partially filled, meaning some types of liquor were recorded. Either way, the missing information would provide sligthly misleading information given the outliers.

1.2 Beer Consumption

top25beer <- arrange(drinks, desc(drinks$beer_servings)) %>% 
  slice(1:25)

print(top25beer)

## # A tibble: 25 x 5
##    country     beer_servings spirit_servings wine_servings total_litres_of_pure
##    <chr>               <int>           <int>         <int>                 <dbl>
##  1 Namibia               376               3             1                   6.8
##  2 Czech Repu           361             170           134                  11.8
##  3 Gabon                 347              98            59                   8.9
##  4 Germany               346             117           175                  11.3
##  5 Lithuania             343             244            56                  12.9
##  6 Poland                343             215            56                  10.9
##  7 Venezuela             333             100             3                   7.7
##  8 Ireland               313             118           165                  11.4
##  9 Palau                 306              63            23                   6.9
## 10 Romania               297             122           167                  10.4
## #  with 15 more rows
…
1.3 Wine Consumption

top25wine <- arrange(drinks, desc(drinks$wine_servings)) %>% 
  slice(1:25)

print(top25wine)

## # A tibble: 25 x 5
##    country      beer_servings spirit_servings wine_servings total_litres_of_pur
##    <chr>                <int>           <int>         <int>                <dbl>
##  1 France                 127             151           370                 11.8
##  2 Portugal               194              67           339                 11  
##  3 Andorra                245             138           312                 12.4
##  4 Switzerland            185             100           280                 10.2
##  5 Denmark                224              81           278                 10.4
##  6 Slovenia               270              51           276                 10.6
##  7 Luxembourg             236             133           271                 11.4
##  8 Croatia                230              87           254                 10.2
##  9 Italy                   85              42           237                  6.5
## 10 Equatorial             92               0           233                  5.8
## #  with 15 more rows
…
1.4 Spirit Consumption

top25spirit <- arrange(drinks, desc(drinks$spirit_servings)) %>% 
  slice(1:25)

print(top25spirit)

## # A tibble: 25 x 5
##    country      beer_servings spirit_servings wine_servings total_litres_of_pur
##    <chr>                <int>           <int>         <int>                <dbl>
##  1 Grenada                199             438            28                 11.9
##  2 Belarus                142             373            42                 14.4
##  3 Haiti                    1             326             1                  5.9
##  4 Russian Fed           247             326            73                 11.5
##  5 St. Lucia              171             315            71                 10.1
##  6 Guyana                  93             302             1                  7.1
##  7 Slovakia               196             293           116                 11.4
##  8 Dominica                52             286            26                  6.6
##  9 Thailand                99             258             1                  6.4
## 10 Cook Islands             0             254            74                  5.9
## #  with 15 more rows
…
